﻿deja;povrce1;povrce1Kind;01-Jan-01 00:00:00;15;200
deja;voce2;voce2Kind;29-May-20 18:45:47;20;680
deja;voce2;voce2Kind;29-May-20 18:57:24;20;680
deja;voce1;voce1Kind;29-May-20 18:57:42;501;50100
kupac;povrce1;povrce1Kind;29-May-20 19:04:51;7;35
123;povrce1;povrce1Kind;30-May-20 10:53:00;6;30
deja;prod1NOVI;folkproductNOVI;30-May-20 11:57:23;500;5000
noviKupac;povrce1;narodni naziv3;30-May-20 12:06:03;2;10
kupac;VOCE1PROMENJENO;narodni naziv;31-May-20 18:50:16;33.37;3337
