admin;admin;admin;amin;Male;admin@mail.com;01-Jan-01 00:00:00;Admin;True
deja;deja;deja;deja;Male;dejan.subasic@gmail.com;01-Jan-01 00:00:00;Customer;True
kupac;kupac;kupac;kupac;Female;kupac@mail.com;01-Jan-01 00:00:00;Customer;True
123;123;asd;asd;Male;dejan.subasic@gmail.com;01-Jan-01 00:00:00;Customer;True
noviKupac;novicKupac;novi123;novi123;Male;novi@mail.com;01-Jan-01 00:00:00;Customer;True
123345;123345123345;123345;123345;Female;s@s.s;01-Jan-01 00:00:00;Customer;True
vucko;vucko123123123;sdjv;sdjfnv;Male;dejan.subasic@gmail.com;01-Jan-01 00:00:00;Customer;True
